[
{
	"directory":"/home/thegiallo/Programming/NonGameProgramming/parsifal",
	"command": "clang++ -O0 -ggdb3 -fstack-protector-all -DDEBUG=1 -DDEBUG_GL=1 -DBIN_SUFFIX=\"_d\" -std=c++11 -Wall -Wextra -fno-exceptions -Wno-missing-braces -Wfatal-errors -rdynamic -Isrc -lm -Wno-unused-function src/main.cpp -o bin/parsifal_d",
	"file":"src/main.cpp"
},
